0025d3fa
006b23ed
ffd2970a
ffdb84d3
002c0902
0061b8f7
0009fb9f
ffd972dc
00478810
ff9c5a2d
0001689c
ffa9f2e7
00236bea
ffcaddef
ffca411b
ffca68ec
00282a94
ffe56c0e
0040ec9d
fffeb9a6
ffad8b38
0038470e
ffe3314c
0022e990
003b8ded
0019aaa0
ffc0b49e
ffe83133
000140a1
001c61d3
0005ba5a
ffbe369e
0025aee9
001c7f93
ffdcf5fb
ffc4237a
ffa8e00b
00263efc
fffdec64
0055004d
00373351
000a84db
ffc53b38
ffbfac62
ffe45708
00776a15
ffa47326
ffe6d8ee
ffdd94ef
ffa980ed
ff8582e1
ffeb367b
fff581d9
00477cbb
ffe1c7f1
ffc4191f
ffe44bee
0073ae19
ff981a50
ffb2b7aa
00232c95
0019d04c
00378127
fffd9a37
00263194
fff40807
002b8956
0002190a
ffd3692a
ffc77051
ffbee9de
ffa1f0e1
004951b1
ffdaf1dd
ffd637cf
00699098
ffe9617a
ffecefa4
ff9e2232
ffe00d1c
ffd48740
0032ae8d
001630ca
00524194
0046a310
005cb71b
0055fca4
000a753e
fff8e03b
001314ea
001adcf2
ffeb9777
00335bf5
ffc90e45
ffd1e34d
ffe595f6
ffaab66a
ffbf2183
ffe92821
ffc334d8
00324c57
00199b03
ffdb79f3
ffe02e79
0048242a
003d28aa
0034aa54
002a08a6
ffd34578
ffdf440b
fff9a769
0011ebf7
00283ba7
ffac3da7
004fef44
ffe4aa2b
00512e78
ffffb4ee
0010fd18
ff899559
004b6ab0
ffa3630c
0037b531
00548812
0033ff40
ffbca149
0028efff
003e7318
00448b05
