fff12019
001e3658
ffdedaf8
00123d00
ffe639cd
fffaeaf0
ffe9eb0d
0018cd37
ffe289d7
ffda4125
001a9698
ffeed857
000aaf2b
fff9b0ba
00189124
ffdffb52
ffddee82
fff25706
0015a88a
0004aad5
fff6f21e
fff305e2
0012dbc1
fff85b2f
ffe86cb1
ffeded70
ffeb2987
ffef09db
ffe26bfa
0005b758
000b3455
0012499b
0012ce6e
ffff7328
fff3ed2d
00077c56
fff65672
0014cfce
ffe3fcab
001f7558
ffebd901
fff39055
ffe7dd7c
ffeba945
000a7947
fffef983
001ed5f3
fffcd358
fff46ff4
001e5e94
001680e0
00048885
fff835a2
001653a9
ffedce96
fff730a5
000cd3b4
ffe8d32e
000b8a7c
fffa2dae
0019daa3
001ac68d
0021706f
fffa96e8
0015669d
00117421
fff85f56
fff9b812
001c4b32
ffedef51
fff15fa3
001c965b
0018ed91
fff73ea3
ffe0d165
ffeab965
fffcde09
ffea8022
0001eaf5
fff37e4a
0017fce6
001f61de
ffeca813
0006da5d
ffe757c4
0005efac
ffdc955d
000579fc
ffef43db
00186278
000f30e9
0002f172
000eff44
000d6528
00262c7c
00298eaa
003b19f8
003808e7
0025f419
0029f3a9
00325e79
00232708
000654f1
ffe86ab6
ffdcf8b3
0006682b
fffe2cb0
000924a5
0020f55a
ffef37f9
001a3ea9
001c78b1
fff1d92a
001f315f
001d0eaf
000ecf19
ffe15afe
ffe58481
ffe3bd9e
000b6702
0006cdfd
000c84b9
000bfc8d
002b6613
00458cda
004b7100
00155afa
ffea2600
000b0a32
000228ab
ffc94474
00031bae
0017244a
00264357
000b8d29
0004b5ef
ffe16bbe
00044767
001a5329
ffe858e6
fff75a70
ffe33ed9
ffe21697
001636bf
0002b906
ffec5216
ffec587f
00238d1e
001f0522
002dd737
002a8f7d
00149793
002be596
fffeeb2a
0009c975
ff8a6398
ff5e8e9d
ff85be0c
ff9ad9ca
ffd2ceb2
fff8b260
ffe1ea4e
003046ed
002d71de
00128a12
0003fa5b
00169f7a
fffff35b
0021d6f4
001339d4
0015796a
ffe5cc07
fff1a2d5
00012b41
fff44da5
ffd98a2e
000c2e6f
ffffab94
ffdc73b8
003d40b9
003c367d
0034ef28
ffdb7290
ff822e81
ff2a9f60
ff680bce
ffb9aa42
ffe99fec
0014fa68
00098011
00016bc6
fff7a4a5
00109cae
000e1642
002231db
00201f43
ffef01e1
00221f16
ffdee9bb
ffe2a874
ffeaa9cf
ffe959ce
0024a10d
000209ad
0009e253
ffe2f657
00351d0a
00477ca1
005c0e31
0017be72
ffd3cffd
ff870488
ff3facc5
ff88b2c2
00040599
fff41824
fff18aab
fff1aff7
000c832d
00126741
002d2d17
0008cc54
001e0c3e
fff9661b
000f17c1
fff4e941
ffea7b88
ffee438e
0007f398
002cdbe7
0026a06d
fffdb488
fff53ba1
003253bd
002a4e3c
004b3aa4
00832c98
002ead91
ffc0a520
ff6ffef9
ff2f4878
ffce876d
000217d7
ffda7315
001415fa
001cd5c6
00329228
000485ca
0012ddd6
00123de6
0014381d
fff1cf09
0002d91e
fffb271e
fff62d52
fff65a74
0018a406
00050a0a
0026a40e
ffee59b1
0001eb7a
000ab778
ffebd8f6
00902890
008a1f7e
00449e8e
ffbc2574
ff7b5cf6
ff79c85e
fff604a2
00250274
000c9a5c
00412fc0
002c8e0a
0039808f
001b2a35
002eb946
ffe4fc89
00141817
ffe1eb95
ffdde2db
0008605a
fffd5580
000899e6
0012a5f8
fff03eb1
fff9314f
fffb413d
fff84b12
fffe917a
00507ad9
00b27608
00b6c24a
001c4295
ff8f2b1f
ff7479ff
ff9335f1
004833cd
004abe77
0031888f
004c8f96
00595fea
003c6e56
00235f9a
0034ae1d
ffe7adf6
fffb3f85
ffe23752
ffe67775
00067b83
000ab5e3
00009505
ffffc81e
ffd27883
ffe6bf3f
0004125e
0004bd21
004097f7
005de521
00bf9e97
0097501d
ffbc63de
ff4fc526
ff51f4f4
ffde018c
0050b8ae
0041df7f
0038aa2f
fff83fe3
00326f46
004c6878
002272b7
fff7b955
ffe8d640
000a017d
0005ea2d
ffdc9fa8
0006ab25
00290930
0001d8c6
ffc2dc60
ffcaa60b
0024354a
003ff8e0
004b252b
00494cfb
00ab1f7d
00c45c5b
003b6562
ff64bb43
ff6f8a5b
ffb4836f
00052815
0037fc26
00323bf6
000b9632
001a936b
001a769f
003cb694
001bba13
0009ab58
ffe39ee8
00160f97
00219e00
ffe18198
0007dade
ffe4e769
fff2a9b1
fffdf785
fff76889
00762ce4
00535f24
005fe4ef
0054a2fe
0072ab60
004fb6ba
ffb4940f
ff7196db
ff97cc72
ffb61c7b
fffc7e94
00173ed6
0005cf90
0019f635
00054d68
00162387
0052da84
00312908
004be485
0005eb21
ffe09395
ffe0dc18
ffec0d71
0012125e
00213f23
0015a7b5
ffe7c767
0044cef3
00356c61
00264fb9
0051b1ff
001d8240
002d7ddf
0020280d
ff9a75fb
ff77f5d6
ffdc07e3
001266b8
ffdbbc2c
ffdf516d
000456d2
00242cff
0017016f
fffa72a3
0025c3f6
00564c13
004830de
fffc42a3
ffffe939
00165a3b
000f8193
fff66066
fff01f91
ffe707d3
000ef2e5
fffea261
0024cf4e
002ca27f
001c3573
ffe39401
000c63bc
ffa9a6e0
ff760f14
ff9cff92
ffce1407
ffee37c2
ffc049c9
ffe26d0a
ffc52c19
ffba46c0
ffc06566
ffdf63a6
001b32e8
00495af0
0033f2e1
ffdfcb15
ffcfc336
0018a57b
000d910b
fff09615
000b6fd3
00034261
ffd80a3c
ffe3ce5e
ffef55eb
0050220c
00230d50
fff69e2e
ffff82cd
ff7d8a46
ff7753f0
ff798fac
ffc52362
ffe65b87
ffc1609f
ffa0060e
ff8e5c74
ff9fc5b3
ffae6386
ffd15075
002f6a5c
0027f7a1
fffcd624
ffd6291a
ffd692a6
fff7e92a
fff27c82
0008eacd
fff8e8c7
ffe7167e
00209be3
0020aed2
ffdcb0bc
000725c2
0015883d
ffcce30e
ffd38d6a
ffabe7c8
ffbd4504
ffcbadfb
ffd3d2ab
ffa914ab
ff83aead
ffab8f3a
ffcddb52
ffbb78a8
fff10686
003022f2
0040e80d
00516dd3
ffebcaf1
fffb2c94
ffdf7549
ffea0c53
fffa9cea
000d501d
ffde1bd7
001728dc
001ea4a4
ffd65ba5
ffd7508e
00166d86
fff3085b
fff7cbc8
ffab547d
ffcbbf78
000b53be
ffdeebe3
ffbb28cf
ffbf219f
ffcd29a5
ffe31dfc
ffe8f083
fffe9c4d
003f0f95
0050e29e
004ab34c
002a307c
ffe20e4d
000329d8
000c54a1
ffdbbeb1
0017f522
000b683f
0007ae9f
0001dd7a
00228e1f
fff7887a
000e5baf
000feef3
fff998a0
0014eb53
ffe43c67
000e311f
0015f294
fff0100d
ffe06f16
ff9baac7
ffa699da
ffe61f99
001c36bb
003c9bcb
0061d412
0037c95b
0011bcf5
fff7ba0b
fff683e2
fff2c6e2
0009c016
00040822
001faa40
ffe0a01a
000099fe
ffe89428
ffd6f267
fff5315f
ffda0c47
fff7d6cb
ffe00a1c
00094f21
001268a5
00200763
0055209c
0024dfb5
ffeda67a
ffcc9465
ffb8cce9
ffeacc15
001bbbeb
005829b1
003c7c58
00044b41
000d75a5
ffd56761
fff513b5
fff2abb7
ffea0d06
001fc79c
001111b4
0013c621
ffd987f2
fffc6712
ffced503
ffc71d85
ffc01fe2
ffbd4fe2
fffc717f
ffefe1fc
0012c3ce
0025f8eb
00248a30
00159342
ffdc38f6
ffd38a96
ffec66d0
0002e99b
004f2cb8
0042a02a
003230aa
00178513
ffebc114
00115671
ffea3f35
00094e72
001d2f73
001d2ed0
001b1295
00182241
001ef498
00141be6
ffe75709
ffca5bee
ffe86d1f
fff6c733
ffe0f672
ffe92c78
001d4547
000fd698
ffeea3c8
002d78e8
000b5134
00489082
003074fb
003db8af
002099da
00634372
fff1638b
000bd82e
ffd9b746
fff93e1e
000b549d
001892bf
0001590e
ffe0c64e
fff0fe8e
001097bf
00142b49
fff43a7e
00097f03
000e60d5
ffe5e6c7
ffecb25a
ffcd014a
0019c6ae
fffbae9d
0007c17e
001092ef
000d3c17
004bf02d
00153d08
00042d7b
001e9a5b
00032fc6
0027e048
fff3f599
ffe4b2de
ffc58ffc
0008d13e
00124186
ffeca7ad
00077d79
001a37a5
0014149c
00116bf0
fff58bba
000fd53a
ffee8196
fff321ae
fff0c1fc
ffe6d2b7
ffedef67
ffe8ff1e
00043104
ffe40720
fff89a3a
0011d8f8
00147acc
0022c46c
fff50702
ffd2f4c7
0008d5dd
fff9f329
ffde7201
00033046
fff2b3da
ffd48012
ffded9f5
ffdfbddb
ffe9ecab
002111fc
ffe0e0ed
0007c35d
000799f7
00143faa
ffe58ef6
ffef88c6
ffe8abc0
ffff7634
fff733d9
ffdaa83b
ffdde8ac
fff6bee2
000d6d28
003691bd
00083b16
ffef5314
0029dbee
ffd93f25
0003ae7e
ffed1095
ffd6afb8
ffe4ed25
000affbe
00174a56
ffef688f
000a4585
0013a96d
00042de4
0019d7bb
ffe28b1c
0018d28b
ffef1bca
ffed2091
ffdf961f
fffe35bb
ffca2b5b
ffd0b1ca
ffe8530b
ffd2f2b4
ffe2985b
fff4f50c
ffd1534d
ffc76876
fffd4462
fffdc6ef
ffe46b67
ffd263e7
0008b5be
ffd26314
ffe5b09a
ffdda6e2
ffe0806e
000ec387
00118e89
000f34bc
ffdab93d
000ec9f4
0002ea1c
ffe41cd0
001f3cde
000c9a04
fffab279
00012894
000c0902
000bd332
fff8c1fb
ffeeb077
fffc5310
0011adb3
fff8f5ae
ffe66216
ffe23287
ffdea6b3
ffe38f69
ffee15f1
fff817a2
00024fba
00138817
fffe0e8a
ffed9bd4
fff19331
ffeb2c78
fff65ee1
ffe359f9
ffe7996f
