0018bf87
ffd992ff
ffeb909e
ffeb0495
00085fea
fffd9e76
0008de94
0011488c
001f1f9b
fffe7587
ffd78d31
00088d82
ffe18c98
fff5c463
001010c5
000cec93
fff9eaed
0018d173
fffe7b34
0002e093
fffbb2d1
ffeb85a4
00052ca5
ffe055af
fffc63a0
ffe22529
ffe206db
000105bd
0005ca04
ffe835f4
00082489
fffb1575
fffd6f95
ffe7dce7
000230eb
ffdc3bfa
ffe86182
fff54548
00168f72
fffe5edf
fff854b1
000040b0
ffdb1776
ffe8a451
fffdaf00
ffe78ebe
001ca2e6
ffeab199
ffe2dd68
fff3c9bb
fffe6605
fff7ea03
000cb114
ffe5dabf
00033da1
ffed80bb
00122bd9
ffef3d8c
000b3fc3
ffe95de5
0006dc09
00105c30
fff81514
ffdc62df
001670be
fffb4815
0016c87c
00235935
fff495ad
0002e074
000860b2
ffdf006b
000fad52
0018e4be
000c1213
001a81fa
0017a83d
ffe0c0d8
0019b725
00087c1b
0013b3a3
fffbf4df
0018ece8
fffa7e6f
001ca586
0005356e
0010c489
0019711f
001cc677
fff88eef
0017c514
000ec262
00200aae
000a16ec
fff76c04
000e2160
0023a7a3
0002a8e6
001d66d1
0034f54c
000cf3d7
0011683d
001aa665
000f80f0
002e3020
ffebec50
ffe82a0c
001da1ce
fff33d9c
fffc95cd
00204dd6
fff91ce2
fff05bdf
00132138
fffb343d
00116f55
0005d0fb
000e109e
fffacd3d
001447ef
fff880ce
fff7a9a3
ffee0103
fff4b8f3
000f771b
000b9136
fff3be8f
ffe88dbd
fffbb065
0028048d
fffe6932
fff9d88a
000d3a46
fffeec13
ffd9a256
000a8926
ffdb6c17
00091c8e
ffda6a49
fffe3b66
ffee96f4
ffeb1707
0007e97a
fff999ab
ffe830d3
000b47ef
fff32c0d
002f54bd
ffee7aff
00222e3a
0003eedb
ffe10348
ffc97244
ffc44765
fff89962
fff55e00
ffebf39b
fff2983d
ffff4934
fffea146
fff64c89
0014effe
ffebee96
001e475d
000c3689
ffdf64a9
fff4c2e5
000a2e5c
ffdfcc3e
0005ad40
ffe3a814
001db935
0013ccdf
002ba451
00179312
0032f61f
00131ae3
ffe29d04
ffe04f37
ffc13a6f
ffc3fb64
ffd87c4a
00057c04
0025c1fd
001a96c3
fff2062d
001eed7a
001c0217
ffe5d614
0005d285
ffe2e8fe
00049efd
0007a87f
000c0df5
0001992a
ffde24e2
ffda6148
0013b27b
fff19acf
001051a1
0019cb2b
000aa7f6
001a33db
001afb7f
ffd7e3b7
fff99e9f
ffdf54d0
ffe40933
ffcbf65f
fff2168e
ffed539b
0019b86e
fffe91f4
0012bac1
ffec4d47
ffd9a438
ffe10624
ffd1e0bf
ffeced7c
001813da
ffecfea7
fffb3aeb
fff71502
000a6cb8
ffeb4e2f
001d6d84
00119cf9
000c7ed7
0001e6a4
00074811
00015f53
fff44470
00081f74
ffd35e41
fff970e8
fff0056d
00121d1e
ffdb464b
ffb55365
fff775b2
ffbcf5fa
fff84d16
ffc3049c
ffd1f314
ffeec446
fffac16b
0020cd6b
fff7b63b
001254cf
000ab86e
ffeb8de7
fff2e961
000c7e04
ffe21087
ffed5919
001191b8
fffdf1e0
00265ada
00005a46
ffe40f9c
001db797
00022562
000ecd35
0008c477
003c48d4
0024b392
0018a37b
ffe7dc1f
ffc75075
ffcfc6f1
ffd69363
ffd6bf09
ffda7d29
0011a77a
00280780
000fc3e1
0002f3dc
001af724
ffea26fe
ffe6fbec
fff48bbf
ffef9053
fff506f5
001ebe60
001f2693
00157ed4
fff3c13c
000f5f9a
00167fd0
00154c7e
001483e3
0040aaf6
0027b10a
0020f8b5
00141d31
0006a18a
ffe95bb4
fffaf2fb
ffcf83aa
ffe0b2d0
ffddff0a
ffe35a5f
ffe1df73
fffd2492
ffe9bb15
000529d2
ffe76112
000577ee
fffba8e4
ffdd1a3b
ffe023da
001e81b4
fffba648
001b158f
0004a7b7
ffebfc3c
00247a6c
001c6e42
002c94ae
000e0171
0012b22e
00041cd8
00151958
00278274
00270fda
00161bfa
fff5743e
000233b8
001a65c7
ffee6248
ffeecdc3
ffe815ff
00030cd1
00174c1c
ffd9a9f6
001ff931
ffded008
fff2e03e
fff200a5
0001b82b
0021550e
000a09a1
001a7a3c
ffe8a96b
0037227b
0011c7e0
00065905
00120ed7
fff71bf4
000d688d
0028c2d5
005b8d8d
004fa146
00130a25
00500071
001b1ee8
00252444
001e7346
0020dac6
001c51d0
000ace46
ffff5b31
0001c666
fff7b418
0019ee2b
ffe087e5
001dfb11
fff41dbc
000943aa
fff08251
fff4d838
0014dd1e
00130765
ffee6fff
fff128a4
ffe1d2ad
00097561
00106fea
00499c49
003f851f
003e6eab
00570c2b
002c3114
003cd19f
fffb9fb6
0025d559
ffe7492e
fff68625
ffde94a6
ffdbaccd
ffe06afb
0015c294
fff4d413
fff94446
ffe91747
ffef3a64
ffff7da3
ffe897b9
001f186d
fffa9a84
ffcafa10
ffab7ea2
ffa695a0
ffe79c6a
fff44a03
ffd737f7
ffec207c
ffff975e
00127433
000fa35d
0004fcfb
0025fa96
0022c969
001437a7
002647b2
fffcafc1
ffef34e9
ffffa1d5
ffdefa60
ffdbbfa9
0006c200
fff4ec0b
ffff9daf
001e8787
000bb756
002b13c3
000be26e
ffeb4b16
ffcc3663
ffbc4667
ff9bd6e1
ffb20a75
ffb241b3
00048b3f
ffea0f1a
0028b9b7
ffccf10f
0013ea1b
0029397c
0053b190
005ca786
0029eb14
0006f830
fffaf335
ffdfa54e
fff1f006
00163768
fffeed07
ffdef341
0013fbce
ffe67a18
ffdfe6d2
ffff8cb9
002d118d
0025a6ab
ffecad9c
ffed5ae5
ffe38abe
ffb42494
ffacab72
ffe55169
ffc6e4c8
ffc0cd2e
ffc252bf
ffe1d272
fff84a9f
0028f5da
002fd86f
004a5da0
000dfd3c
00421135
ffeb54d7
ffd9770c
000a2c3b
fffc9a2a
001db9e4
000a7ff7
ffef4913
0010fa23
00291d24
002721e1
fffeae09
0016a6de
004e000c
0017faf3
ffecb919
ffe18dca
000061c7
ffc81682
ffff57c0
ffebaeec
fff1948c
ffd80bf4
ffdbb6ee
0001cf88
004ddd47
00144b3b
002ed2f2
fff40a60
00010889
001cb956
ffe8afa4
ffe61ea6
000e3c2f
ffe9a3f7
ffdf8d3e
ffef1e03
fff8364c
0000b17a
0020abef
002b607e
0047b6d3
005ffa33
00257fe8
000c778f
0002d2ee
0018a849
001725e4
ffef6080
ffe88c58
fffa177a
0022bc42
ffe2d00e
002363ee
fffb4b75
000597b8
0010bd78
000b1151
0015df76
0010392c
0010ab70
000b1ef8
000d46fc
fff9d316
000f658f
000eddfb
0024e1ab
001dc821
000cd065
003deece
004a0a4e
00619a4c
0075e9ba
00542a7d
0026da8b
000c93af
fff2aeb0
0006ae37
fff2867d
fff96635
fffb56f0
00141612
fff58875
ffeca890
0000e8f0
0024e04a
000e43dc
0015b0d6
ffd68186
fff0e4d8
001a0355
fff1de62
ffe9ef9e
ffe9e58a
ffe20b60
ffebee1f
fff37c94
00308d27
00112fd3
006ac653
00340285
004dcb33
fff4cfab
002e894b
000e4a48
ffec684d
00199675
ffeb646c
00035a48
fff9ad0d
ffecf499
ffe68b19
fff52f99
ffdbab87
ffd9fd6c
000e48f3
0009f0d6
0007f2d0
001fc486
fffc322c
ffe2b797
000ca307
fff11903
ffea2c07
fffdb69e
ffde103f
002037c1
00261aa6
0028d601
0020b032
fffcefad
0002f84e
000ca78a
fffbe463
ffd711ed
ffeccca7
fffc618d
00040da0
00138907
ffe05cb1
ffeb9e8a
0001c33e
000c6730
000643b3
001b7e5c
ffdc4623
fff20932
000994f5
ffe01f48
ffd7c7d9
ffd5d636
ffe1b336
ffa851c3
ffbcdd49
ffbbeb49
ffb6b371
ffdd777d
00097d8d
0009f14e
00113efe
0000a2d9
fffeec0a
fffee400
000028bc
0012be2d
000fba48
ffe62ab3
000a8025
ffed9dc0
ffe6bf3f
000310cf
002048e8
ffe0fc0d
ffe8f52f
001b3537
0000dcac
ffe70230
0001d966
ffe069a6
ffeb21ab
ffed5577
ffbf6882
ffc1875f
ffd7c8f7
ffeec301
ffcabc77
ffcc9dde
ffef3e8f
fff50385
fff81fd0
000d68b7
fff956e5
001a42a2
000d974a
ffeeb71a
ffd7675f
00109993
000be66b
ffe35ab5
fffbd564
fff878ad
ffe54183
fff74cfe
001b80b1
000b20f1
0009896a
ffe5b81e
ffe1ac3c
ffda5cdc
ffddea10
ffdcf5ab
ffe47c0a
0009464b
000977d4
fff0e60e
00093ddf
0027efae
0025519a
000a5a2a
0023f2f0
000ec7cf
ffe4338a
0006cd4d
0002ba3f
000826f3
fff4e200
fff79abb
000a8440
0011b3d8
ffdc0845
001f0214
00205e55
00118028
ffd7c477
fffe1b6d
fffa1df1
0008f62f
001104c0
001d061a
000cfb82
ffe8645f
001d4413
00076bad
0026bc5b
ffe03de7
00165717
00276352
000e40b1
0007d662
ffeab90e
001ad93b
ffd7ae4f
fffb0df4
0005e04f
00149037
00057527
0011f5d0
001680ae
fff60b05
ffef34c3
000119e0
fff5329d
fff480db
000e798f
fff55e03
ffe717ac
ffdc2dd9
00091ff7
0006278f
fff5fa4b
ffdf1947
ffebbe15
ffedacca
00200212
ffec1a50
001e5e3c
ffecd9ed
ffdd281e
ffe70c22
001c6d8d
000b91f8
ffd79f76
ffe81028
fff15266
ffec1f24
fffa53d6
fff89462
ffea5176
000b4005
ffeb2cdb
ffe7f78e
fff69852
0014c787
fffe871c
001128e3
fff3670d
fff47446
ffe3bcea
00169d11
0002a527
fff037be
00067986
ffe9dda7
ffe96cd9
ffdf8468
0017a030
00121768
ffe22d74
ffea18ab
ffdfbdc7
fffae633
ffeb44c2
000afcc8
000482b6
fff89488
