ffdcbce4
fff9ce80
0009ed87
ffebb1f7
001a4d99
002372bf
fffcab3e
000c6fca
fff9c2f8
ffe0b18d
ffe631ff
001bafb3
00076734
ffdef489
000b61da
0021242a
00102f9f
0000582d
ffe21d4f
fffc746c
00179c8f
000acad5
fff88599
0018fb16
001ec5d1
0001166c
0001de18
000a948a
00075179
ffff084d
00112725
0008775b
0014f82d
ffeab7c5
001209f0
000ba3c5
0001de53
ffe4d26f
ffdedf7f
fff29d44
0009f8f1
ffdbcfa3
ffedc417
ffd9c664
fff3dc7d
fff784ab
001b00d6
fffb2445
00216b09
002308d8
ffe2f9e4
001c9d5b
ffea6af7
000c6c81
0011b24e
ffe9a164
fffe0215
ffdc7fac
ffde408a
0006fc8c
fff12351
00090f69
fff876b4
ffe5d7a5
fffda950
fffa93c3
ffe82318
fff5bff9
00014dc6
ffe63456
001812a5
00169bf9
ffe0713e
001ecf71
ffe8d87a
000db916
ffdb373c
001ae464
0018d502
0021f74f
0003281f
000ab6ff
00006ddd
0019bd55
fffa692f
00157d8f
ffef7932
fff0145e
ffee3805
ffe0ac79
ffe66ac9
ffebc725
000b674c
001a8d1c
ffd9015c
fffa15de
ffd6977d
0015753a
ffd69c79
fff370c4
ffec3c06
001cf92d
001395ea
0015eb23
000aa373
001bd24a
001ba8e9
0002b717
0012162b
fff5df2e
fff3d3ca
001d6b26
001c877c
0018f16c
001b36da
0003a39c
ffff1107
00049428
001be8bc
ffe0af3d
000441c0
fff9d0c7
0015213e
0018d523
ffe8eb0c
00098e64
001d2e30
00016492
0025332b
ffe476cb
001735ac
ffedce3e
00117ac4
fffdea3f
ffec2b56
ffe57f71
fff70758
0010bd19
00235ec4
000987ce
ffef4f76
0016ebe3
ffe1682e
000199c0
000c1fbb
0012cc6f
001726be
000f24d6
fffe86f2
0010864c
ffddad77
002214c7
000d9abc
00208c32
001e0c4c
003325d5
000acce1
fff23f84
0004fd1f
fff34edb
ffe2d623
00036561
001e2d2d
0007d59d
ffe8ecca
001a90e2
ffdb4a8b
ffe85620
0004a1f9
00120153
ffdccf14
ffe3b294
001fc418
fffd42c9
0017792f
ffea34f4
0000dd70
00034099
ffd51c8c
0012adae
ffe20c99
000b3e8d
003738d2
004aac8b
00080d8d
00113882
ffc84bd9
0005a52a
ffe8fa9d
ffe6b57c
fffc7dfe
00286a90
00110865
fff10a73
00158e5c
ffdf5677
fff6464a
fff2e656
ffecd65a
ffeac9c9
fff0969f
ffeba8c4
00089159
fff0a1d7
ffe917b1
00095132
ffff432c
fff579c2
001bf813
00309afa
0033d590
0011404b
002542a4
ffffaeb7
ffea7888
fffdd03e
002b6180
00220100
001c6122
002fd9f0
00185c91
fff60f0e
00247fe8
fff4a1cc
000ee2c8
ffe03785
ffdd7aac
00020467
ffda4d61
00261947
000feb58
ffe703f3
ffd8559c
ffcc31f4
ffca70b0
ffec8cec
fff6ff91
00186058
002440cf
001602dd
0004bcf6
ffce0e2e
ffd14127
ffddcfc8
ffefaa2e
000c321d
00314691
00251f90
fffa2928
001f008a
ffe3f144
0018c563
000647c6
000e694b
ffe473f4
00092399
fff2e848
ffe87fa2
002a433f
001040be
ffcf1d3c
ffc949d6
ffd2e0e2
0003b72a
00338d3a
0049c40e
000db4b8
002d6ce6
ffdbaf8a
ffcd4bc1
ffe4b07a
000aeefe
001c96d0
000018bf
fff4582d
ffed9964
000d5771
0011318f
fff7a0ed
fff57001
ffe8157e
fff9080f
00143ff6
0003bd1a
fff050da
001f85b4
ffde7522
ffef7284
fff67398
ffe1e7e7
ffd6e6bc
00297546
003867b9
fffcb945
ffea0fe8
001148d3
ffe63813
fff28f0c
0000af88
003347a2
001bbb86
000fd234
0023d581
001a282d
ffdb1fb8
00072b59
ffe2b660
001b8d80
0014db15
0019c7ac
fff46058
000bae63
000a5374
fff4b9f3
00109cdf
0015d5c9
000819cf
0006ac70
0020fad2
00084f11
ffebe3cd
fff45841
001c3abb
ffe26727
ffd9c290
fff26c06
0005bcd4
001dc318
0016db27
0012e65e
ffd9e6dd
ffd7fee8
ffe1b7e4
00028976
fff60689
0012a6df
001f36d0
ffe4dfb4
000d4572
ffe5d7a8
fff6cfdc
002231f6
00134f27
0006e03e
0008e2c0
ffe0eab8
ffccf959
00166fc2
fff13104
00232a8d
ffffd439
fff803ad
ffcdabce
000dd6a0
0016b1c1
ffe57d47
ffe00300
ffea6e49
0003107b
fff46c97
ffd6c7ca
0001b770
ffe72e0a
ffde726d
ffdbb313
001dc696
ffe80074
fff966c5
fff6224d
0016cb88
fff8ff38
fff4908b
0024db18
fff40a2c
ffe60fe6
ffea708b
fff49e60
0007068f
ffde15d6
ffd9f38a
0008631b
001ec210
ffee51e7
ffd7102c
0013dd5d
ffd873d5
fffcaf6c
ffe5c97d
ffdf05cb
fff49163
002326ab
ffe3a33e
ffe32989
00031359
0021e18d
fffae6f1
fffca539
ffe4acf8
fff528a4
000aeed8
00276cd5
ffffd14a
ffe0f3ea
ffd59557
fff2989c
ffd0c01c
ffcd827c
ffc7bc92
0011cc52
00015271
fffdaa00
ffcc3742
ffd46dfe
0007aee4
00152102
ffd8a8e5
fff8b4ac
ffe544d4
001d21c0
ffe7bcec
fff5a725
001ced5d
fff1a5ca
fff7a326
002185f6
fff43968
ffe4bae6
0018f836
000f0d22
00197635
0025b447
000f08ad
ffe50f8a
ffcd3e5d
ffea9bd3
ffe40d60
fff20252
00030111
000f613e
fff1530f
000579f7
00083874
fffd2f93
001def77
ffded6bd
00150ece
fff21040
ffe7488b
00239592
fff22b4c
ffe34d2d
000cc3f3
001ac796
fff08240
ffea9d33
001e0200
002fe8f2
0034e0e1
0004d4e4
ffef36f4
0007d40f
0020667f
ffdb9911
00263e7d
0011dc9c
00005150
001e9a9a
0020fca2
000555aa
00287a44
0005b3f1
ffe99cb1
00176e2d
0007d528
ffe55962
00146e7f
00227677
001f4d6e
00008559
ffe68f8d
0012e2a2
fff71581
00253bc3
0022175d
00059c48
fffae43e
0025a068
fff6a37c
0012fabe
0021ad36
0011acbf
000b1e4b
00133640
00190204
0025f069
000dff0d
001a175c
001426a5
0018a18d
ffffd89f
0004a672
001a7c2c
001b2a2d
ffe78b42
001b0cd2
ffe7c44d
0017373e
ffeb926f
00102804
ffe74aa1
0003e178
fffd60f1
00211239
002a3f78
ffdeae8b
002778c6
00053446
00268b9a
00265a1a
fffedaf3
000a7bc4
ffe145b8
001ee141
0034d437
00088fc8
fff207cf
fff0ef42
0009ad24
000f75bc
ffe0449b
fff4456a
000d9909
0006bef0
001b9806
ffe47364
fff5ef99
fffa6d3d
fffef150
fff463ae
00165ad3
000ca1f0
001ca485
00142c6a
000f7e24
000ca69b
fff16ebe
000ab329
00190cd7
0002456b
0024fce4
0022d05a
ffe6884b
ffe62a22
fff2cd04
ffeb0380
0002320d
fff7126f
001d5265
ffe954d8
fffb9a79
000e70d1
0000b62f
001b2222
fff7694a
ffe4fdd5
ffe43b44
00069a26
001b57de
fffa537d
ffe3dca2
fff2006b
fff7dc47
ffffd024
fff82e1a
ffde8d3e
0006f204
fffc0853
0004f3da
ffe06326
ffe558f1
ffe7896b
002a0df8
00242e87
fffd5789
fff9c83c
ffe449db
ffe7a5bc
fff9962d
00154dc6
ffe36bab
fffda953
000ea88e
ffecad8f
000fbdab
002257b0
000d474c
ffe574f3
000e8665
ffd9fb2b
ffdaa5bf
00097454
0021b7da
001a6891
ffd88fc3
fffca10f
fffcda82
0018dd74
0011fbfd
0018f516
0002f75a
ffeb4027
ffece4c4
ffecb56b
00175293
ffdb3d2f
001033a7
ffec6da0
fff89f20
ffe8c5f2
fffa9420
00197b28
ffe84a34
000dbff1
ffe6f28d
000201b9
0003b196
000af7f4
001e0864
000a101c
000d4dc5
000b34fb
ffff5b7b
002123c1
ffe9eea9
ffec0639
000b2e75
0029bd42
001bc78a
ffe6ef98
000baf44
ffefce18
fffb1e6e
fff9c5d2
0001ba3e
00059b79
001e15d5
fff8556c
ffdc9ccb
fff85de3
00042846
0013126b
ffe1862f
0009a48e
fffd0220
001f0a1e
00296c3d
002685ec
ffe41c43
ffdf9e48
001c8235
fff6edac
001afd02
000dcc40
00219f44
00180105
0026939c
ffede005
ffede1d5
00203d7f
0005667d
000ea5e7
000bccf7
0006ec9a
0013016f
00074651
0003d6f4
fff8439b
0022e37e
00001ef3
ffe27d53
001a5263
0020d882
fff80dc4
0006c45f
ffef2c5a
ffeb22bc
0009c2ad
ffe699f8
ffdb4706
ffe7b4f0
ffe6a8b9
0003cfc8
ffef1fe0
001f70be
001751d4
ffec104a
0013dce9
ffe28b7e
001c9bc5
fff44f16
fff6be90
0012f81c
000e96bc
001df5ca
ffe103f6
0021ac8e
0010723a
ffe8f724
fff5fcbc
ffec6f54
00284f2f
001a7e96
fff0581e
0013cd7c
ffeb6de1
ffe05c0f
0004a042
001a204b
0008994c
fff23a3c
ffdee46c
ffe73130
000fd405
ffe524e6
ffed555c
0004a8ad
0019ee70
000f8651
ffff110b
ffeec911
ffdcd17f
00017958
0009c5c3
ffddea47
0003ac09
ffefcba1
ffdbab00
fff76bd2
001b7602
fff10993
001a9b3e
ffdd2366
0020b320
ffef98fc
fff7ced3
001baf5a
ffed769b
000f227e
0008a7f5
ffe2e36c
00067c84
fff100f9
fffafc9a
fffb8dac
ffde3556
0007404a
001786bd
fff5e744
fff255c8
0013c21e
fff9fadd
ffef33fa
ffe9dd98
ffe3d7b5
001e42fd
fffbed09
fffd0b28
ffe236a4
ffee133e
0001a1b1
fffc93b6
000c1e95
00057bc1
00092e02
00021d0e
ffe06e3d
00246cf9
001e3153
ffe0a449
000f364b
ffdb4d56
ffff606a
0022b95d
0019b1b8
0005b031
