ff745119
ff8d64ef
013a66c8
ff946f06
019a2722
ff36a11b
fe54e71a
ffeda481
fffe5449
00e2569d
011403a6
ff5c506c
00af1415
00547912
00a14535
00083435
006ac565
0081f939
002856d5
01e0524e
fe3bd9b2
ff3a0c0e
00c6584e
fea61a76
004806d8
01940474
00129ca4
ff84dafe
01220476
ffe365ec
006a2678
00416d19
00681dbd
ff77f5dc
005795ef
feb9ca24
00439b1b
00b72113
00865471
006f63aa
ff6018d6
00daadda
0115880a
007f8b8d
0072cc73
00008a23
fe4b4222
fe393f0c
ffafa150
00f934b8
fee69c24
ff206c82
003d13c8
00c87292
fefa098c
ffd665ff
ffc71f4f
020dbb18
feaacefc
00e919f5
ff21cab7
feb399b8
ff9a3dd6
ffdeffc2
ff8ac778
