0073f2b8
ff7d0c42
009ee29e
012686e6
fe516daa
ffa182db
fed8506c
00b4087e
ffe916e9
fef54adc
013db5ac
0050468d
feddb3be
00441337
02415b18
fff7b542
00012f88
fffa6e2c
00d00f70
ff294321
006a2e20
ffd037e6
ff88bdce
fe866928
00a0884e
00b67dd7
0245c3c4
0012ec76
fe3aed10
00218c3b
0096a691
006edafc
ff9aebf9
0086a9e3
010eed34
ffa954b2
011a0b02
fee66caa
00be3a05
00546e4b
015c0a08
ff38433e
00518e2f
fe54cdfa
01d3c7ee
feee4288
ff330dc7
0035b765
00911f80
ff6a06bb
ff8b9bf1
01113a3e
00547a09
ff530a4d
ff0b769c
ff754ecb
ffd2ba33
0269816c
fe40d320
001992bc
00a5f2b5
01885380
01304f1a
005741c3
00231acb
